2020-11-06 00:28:02 [DEBUG] com.ocpsoft.pretty.faces.config.reload.PrettyConfigReloader - Detector DefaultDevelopmentModeDetector returned: null
2020-11-06 00:28:02 [DEBUG] com.ocpsoft.pretty.faces.config.reload.PrettyConfigReloader - Detector JSF2DevelopmentModeDetector returned: false
2020-11-06 00:28:02 [DEBUG] com.ocpsoft.pretty.faces.config.reload.PrettyConfigReloader - No development mode detected. Configuration reloading gets disabled.
2020-11-06 00:28:11 [INFO ] tn.esprit.spring.controller.ControllerEmployeImpl - vous etes connecté
2020-11-06 00:28:11 [DEBUG] com.ocpsoft.pretty.faces2.application.PrettyNavigationHandler - Navigation requested: fromAction [#{employeController.doLogin()}], outcome [/pages/admin/welcome.xhtml?faces-redirect=true]
2020-11-06 00:28:11 [DEBUG] com.ocpsoft.pretty.faces2.application.PrettyNavigationHandler - Not a PrettyFaces navigation string - passing control to default nav-handler
2020-11-06 00:28:16 [DEBUG] com.ocpsoft.pretty.faces2.application.PrettyNavigationHandler - Navigation requested: fromAction [#{employeController.removeEmploye(employe.id)}], outcome [null]
