2020-11-05 21:54:39 [INFO ] tn.esprit.spring.controller.ControllerEmployeImpl - vous etes connecté
2020-11-05 21:54:39 [DEBUG] com.ocpsoft.pretty.faces2.application.PrettyNavigationHandler - Navigation requested: fromAction [#{employeController.doLogin()}], outcome [/pages/admin/welcome.xhtml?faces-redirect=true]
2020-11-05 21:54:39 [DEBUG] com.ocpsoft.pretty.faces2.application.PrettyNavigationHandler - Not a PrettyFaces navigation string - passing control to default nav-handler
2020-11-05 21:54:45 [DEBUG] com.ocpsoft.pretty.faces2.application.PrettyNavigationHandler - Navigation requested: fromAction [#{employeController.removeEmploye(employe.id)}], outcome [null]
2020-11-05 21:54:45 [DEBUG] com.ocpsoft.pretty.faces2.application.PrettyNavigationHandler - Not a PrettyFaces navigation string - passing control to default nav-handler
2020-11-05 22:21:52 [INFO ] tn.esprit.spring.TimesheetApplicationTests -  
 *************************** le nombre des employes avant l'ajout 22*************************  

2020-11-05 22:21:53 [INFO ] tn.esprit.spring.TimesheetApplicationTests -  
 *************************** le nombre des employes aprés l'ajout 23*************************  

